<?xml version="1.0" standalone="no"?>
<!DOCTYPE svg PUBLIC "-//W3C//DTD SVG 1.1//EN" "http://www.w3.org/Graphics/SVG/1.1/DTD/svg11.dtd" >
<svg xmlns="http://www.w3.org/2000/svg">
<metadata>
This is a custom SVG webfont generated by Font Squirrel.
Copyright   : Copyright c 2002 2005 Parachute wwwparachutegr  All rights reserved
Designer    : Panos Vassiliou
Foundry     : Parachute Worldwide
Foundry URL : httpwwwparachutegr
</metadata>
<defs>
<font id="PFDinTextCompProLight" horiz-adv-x="751" >
<font-face units-per-em="2048" ascent="1536" descent="-512" />
<missing-glyph horiz-adv-x="376" />
<glyph unicode=" "  horiz-adv-x="376" />
<glyph unicode="&#x09;" horiz-adv-x="376" />
<glyph unicode="&#xa0;" horiz-adv-x="376" />
<glyph unicode="!" horiz-adv-x="438" d="M152 0v131h133v-131h-133zM154 1425h129l-13 -1081h-104z" />
<glyph unicode="&#x22;" horiz-adv-x="450" d="M78 1053v372h100v-372h-100zM276 1053v372h97v-372h-97z" />
<glyph unicode="#" d="M10 459v84h140l63 352h-119v86h135l88 455h89l-89 -455h207l86 455h88l-86 -455h123v-86h-139l-66 -352h119v-84h-135l-86 -459h-88l86 459h-207l-84 -459h-88l86 459h-123zM236 543h206l66 352h-207z" />
<glyph unicode="$" d="M43 301l125 27q0 -41 9 -79t28.5 -67.5t52.5 -49t82 -26.5v586q-94 43 -150.5 85t-87 87t-40 95.5t-9.5 111.5q0 152 70 251t217 114v172h68v-172q84 -4 139 -33t89 -73t48 -96t14 -101l-125 -31q0 88 -37.5 146.5t-127.5 68.5v-518q2 0 10 -3t10 -5q92 -37 145.5 -77 t81 -88t35.5 -107.5t8 -137.5q0 -84 -15 -154.5t-49 -122t-89.5 -81t-136.5 -35.5v-191h-68v191q-78 4 -134 29.5t-92 66.5t-53.5 96t-17.5 121zM178 1073q0 -41 6 -73.5t22.5 -60.5t48.5 -54.5t85 -53.5v484q-51 -6 -83 -30.5t-49.5 -58.5t-23.5 -75t-6 -78zM408 106 q55 6 87.5 31t49 62t21.5 83t5 97q0 61 -5 102t-21.5 73t-49 56.5t-87.5 51.5v-556z" />
<glyph unicode="%" horiz-adv-x="1187" d="M88 737v514q0 82 55.5 130.5t135.5 48.5q76 0 132 -45.5t56 -127.5v-520q0 -82 -56.5 -128t-131.5 -46q-86 0 -138.5 46t-52.5 128zM190 741q0 -35 23 -56t66 -21q41 0 62 24.5t21 59.5v505q0 33 -21.5 56.5t-61.5 23.5q-47 0 -68 -25.5t-21 -58.5v-508zM225 -35 l643 1497h86l-643 -1497h-86zM723 166v514q0 82 55.5 130t134.5 48q76 0 132.5 -45t56.5 -127v-520q0 -82 -56.5 -128t-132.5 -46q-86 0 -138 46t-52 128zM825 170q0 -35 22.5 -56.5t65.5 -21.5q41 0 62.5 24.5t21.5 59.5v506q0 33 -21.5 56.5t-62.5 23.5q-47 0 -67.5 -25.5 t-20.5 -58.5v-508z" />
<glyph unicode="&#x26;" horiz-adv-x="937" d="M84 340q0 125 56.5 227.5t160.5 200.5q-10 23 -26.5 48.5t-26.5 45.5q-35 63 -55.5 137t-20.5 142q0 61 18.5 114.5t52 93.5t83 63.5t108.5 23.5q100 0 164 -32t100 -104l-112 -59q-23 43 -61 61.5t-87 18.5q-37 0 -64.5 -16.5t-44 -43t-24.5 -59.5t-8 -63 q0 -109 84 -262l301 -521q23 57 34 116.5t15 119.5h117q-4 -82 -26.5 -178.5t-61.5 -175.5l139 -238h-147l-76 129q-74 -90 -148.5 -115.5t-150.5 -25.5q-59 0 -112.5 23.5t-93.5 68.5t-63.5 110.5t-23.5 149.5zM207 346q0 -51 13 -95t38 -78t62.5 -53.5t87.5 -19.5 q53 0 110 32t100 91l-256 443q-82 -84 -118.5 -162t-36.5 -158z" />
<glyph unicode="'" horiz-adv-x="319" d="M113 1053v372h98v-372h-98z" />
<glyph unicode="(" horiz-adv-x="436" d="M90 618q0 248 74 465t184 383l62 -28q-47 -86 -85 -184.5t-65 -203t-41 -212t-14 -211.5q0 -225 55 -439.5t148 -384.5l-56 -32q-53 80 -101 175t-84 202.5t-56.5 225t-20.5 244.5z" />
<glyph unicode=")" horiz-adv-x="436" d="M90 1438q6 2 30.5 13t29.5 15q111 -166 185.5 -383t74.5 -467q0 -125 -20.5 -242.5t-56.5 -225t-84 -203t-104 -174.5q-2 2 -9 6t-16 10t-17.5 10t-10.5 6q92 170 147.5 384t55.5 440q0 104 -14.5 210.5t-41 211t-64.5 204t-85 185.5z" />
<glyph unicode="*" horiz-adv-x="696" d="M49 1169l35 99l217 -92l-16 247h104l-16 -247l219 92l35 -99l-232 -65l158 -197l-88 -57l-127 213l-127 -215l-86 59l154 197z" />
<glyph unicode="+" d="M25 551v100h303v328h96v-328h301v-100h-301v-330h-96v330h-303z" />
<glyph unicode="," horiz-adv-x="335" d="M88 -219l43 209h-35v155h144v-153l-80 -211h-72z" />
<glyph unicode="-" horiz-adv-x="684" d="M100 530v113h506v-113h-506z" />
<glyph unicode="." horiz-adv-x="335" d="M96 0v150h144v-150h-144z" />
<glyph unicode="/" horiz-adv-x="499" d="M12 -86l381 1571h99l-381 -1571h-99z" />
<glyph unicode="0" d="M100 248v926q0 63 22.5 113t60.5 83t88.5 50.5t105.5 17.5q117 0 196.5 -67.5t79.5 -196.5v-926q0 -66 -22.5 -115t-60.5 -82t-88 -49t-105 -16t-105.5 16t-88.5 49t-60.5 82t-22.5 115zM223 244q0 -66 43 -104t111 -38q66 0 107.5 38t41.5 104v934q0 66 -42 103.5 t-107 37.5q-68 0 -111 -38t-43 -103v-934z" />
<glyph unicode="1" d="M193 1130v136l208 159h129v-1425h-124v1292z" />
<glyph unicode="2" d="M100 1104q0 160 70 246t213 88q150 0 214.5 -85t64.5 -225q0 -90 -17.5 -166.5t-58.5 -154.5l-344 -690h409v-117h-549v113l381 764q29 59 38 121.5t9 129.5q0 35 -5 70t-21.5 61.5t-46 43t-78.5 16.5q-72 0 -114 -56.5t-42 -181.5z" />
<glyph unicode="3" d="M96 291l125 24q-4 -98 30 -155.5t122 -57.5q66 0 109.5 39t43.5 131v228q0 98 -40 140t-117 42h-60v113h64q74 0 113.5 38.5t39.5 133.5v192q0 33 -7 61.5t-24.5 50t-45 35t-68.5 13.5q-84 0 -122 -58.5t-38 -150.5q-6 2 -23.5 4t-39 5t-39 6t-23.5 3q2 68 20.5 124.5 t55.5 97.5t91 64.5t126 23.5q74 0 124 -21.5t81 -59.5t44 -89t13 -111v-166q0 -39 -4 -75.5t-17.5 -68.5t-38 -58.5t-65.5 -45.5v-4q43 -16 67.5 -41.5t38 -59.5t16.5 -75t3 -88l-2 -199q0 -147 -76.5 -218.5t-203.5 -71.5q-141 0 -209 79t-64 226z" />
<glyph unicode="4" d="M49 236v114l299 1075h125l-301 -1075h297v398h127v-398h109v-114h-109v-236h-127v236h-420z" />
<glyph unicode="5" d="M94 297l125 18q0 -96 31 -154.5t127 -58.5q66 0 106.5 39t42.5 133l4 381q0 78 -39.5 113t-107.5 35q-51 0 -90 -22.5t-57 -61.5h-111v706h528v-112h-417v-467h8q31 31 78 47t100 16q117 0 175 -65.5t58 -165.5l-4 -399q-2 -147 -76.5 -220t-199.5 -73q-143 0 -210 82 t-71 229z" />
<glyph unicode="6" d="M100 248v250q0 82 11.5 137t27.5 98l269 692h127l-83 -217l-77 -201l-59 -154q-24 -62 -27 -75l6 -4q23 18 55.5 30.5t65.5 12.5q123 0 180 -73.5t57 -184.5v-311q0 -66 -22.5 -115t-60.5 -82t-88 -49t-105 -16t-105.5 16t-88.5 49t-60.5 82t-22.5 115zM223 240 q0 -66 43 -102t111 -36q66 0 107.5 36t41.5 102v325q0 63 -42 99t-107 36q-41 0 -69.5 -15t-47 -39.5t-28 -55.5t-9.5 -62v-288z" />
<glyph unicode="7" d="M92 1141v284h567v-104l-374 -1321h-123l370 1313h-331v-172h-109z" />
<glyph unicode="8" d="M100 248v274q0 78 31 133.5t84 87.5q-53 31 -84 86.5t-31 135.5v209q0 63 22.5 113t60.5 83t88.5 50.5t105.5 17.5t105 -17.5t88 -50.5t60.5 -83t22.5 -113v-209q0 -80 -32.5 -134.5t-83.5 -87.5q51 -33 83.5 -88t32.5 -133v-274q0 -66 -22.5 -115t-60.5 -82t-88 -49 t-105 -16t-105.5 16t-88.5 49t-60.5 82t-22.5 115zM223 240q0 -66 43 -102t111 -36q66 0 107.5 36t41.5 102v309q0 63 -42 102t-107 41q-68 0 -111 -40t-43 -103v-309zM223 940q0 -63 43 -101t111 -38q66 0 107.5 38t41.5 101v242q0 66 -42 102.5t-107 36.5q-68 0 -111 -37 t-43 -102v-242z" />
<glyph unicode="9" d="M100 866v312q0 66 22.5 114.5t60.5 81.5t88.5 49.5t105.5 16.5q125 0 200.5 -65.5t75.5 -196.5v-250q0 -82 -11 -137.5t-28 -98.5l-270 -692h-129l83 217l77 202l58 153q24 62 28 75l-6 4q-20 -18 -53 -30.5t-68 -12.5q-123 0 -178.5 73.5t-55.5 184.5zM223 860 q0 -63 43 -100t109 -37q39 0 67.5 15.5t47 40t27.5 56t9 62.5v289q0 66 -42 101.5t-107 35.5q-66 0 -110 -36t-44 -101v-326z" />
<glyph unicode=":" horiz-adv-x="335" d="M96 0v150h144v-150h-144zM96 621v151h144v-151h-144z" />
<glyph unicode=";" horiz-adv-x="335" d="M88 -219l43 209h-35v155h144v-153l-80 -211h-72zM96 621v149h144v-149h-144z" />
<glyph unicode="&#x3c;" d="M27 557v90l694 369v-109l-594 -305l594 -305v-109z" />
<glyph unicode="=" d="M25 395v105h700v-105h-700zM25 700v103h700v-103h-700z" />
<glyph unicode="&#x3e;" d="M29 188v109l596 305l-596 305v109l694 -369v-90z" />
<glyph unicode="?" horiz-adv-x="731" d="M63 1124q4 154 91.5 234t216.5 80q86 0 146.5 -23.5t97 -67.5t54 -106.5t17.5 -138.5q0 -111 -36 -201t-78 -164l-77 -134q-36 -60 -36 -114v-145h-123v164q0 39 12 83t35 79l80 133q33 53 54.5 98t30.5 89t9 104q0 100 -40 162.5t-146 62.5q-72 0 -125 -50t-56 -161z M332 0v131h129v-131h-129z" />
<glyph unicode="@" horiz-adv-x="1527" d="M119 686q0 168 44 307.5t129 238.5t210 153.5t286 54.5q152 0 269 -49.5t195.5 -136.5t118.5 -207.5t40 -262.5q0 -141 -27.5 -235t-72.5 -150.5t-103.5 -80t-122.5 -23.5q-16 0 -41.5 6t-53 21.5t-51.5 39t-34 60.5h-2q-31 -57 -91 -83t-118 -26q-53 0 -89 19.5 t-58.5 51.5t-31.5 73t-9 84t11 88t38 82t70 60.5t106 23.5h137v106q0 53 -27.5 87t-95.5 34q-43 0 -76.5 -21.5t-43.5 -62.5q-4 0 -19.5 4t-32 9l-32 9.5t-19.5 6.5q23 70 83.5 111.5t144.5 41.5q49 0 90 -11t71.5 -36.5t48 -66.5t17.5 -103v-371q0 -68 33.5 -103.5 t79.5 -35.5q41 0 79.5 15.5t68.5 57.5t47.5 119t17.5 199q0 131 -38 235.5t-105.5 175.5t-161 108.5t-203.5 37.5q-147 0 -256 -51t-178.5 -139t-103.5 -208t-34 -257q0 -152 36 -273.5t108.5 -209.5t180 -135.5t251.5 -47.5q94 0 177 16.5t169 67.5l39 -92 q-86 -41 -181.5 -65.5t-193.5 -24.5q-162 0 -290 48t-217 144.5t-136 240t-47 331.5zM608 543q0 -51 33 -91t98 -40q59 0 94 38.5t35 100.5v154h-112q-59 0 -103.5 -36t-44.5 -126z" />
<glyph unicode="A" horiz-adv-x="790" d="M25 0l307 1425h127l313 -1425h-125l-76 344h-354l-74 -344h-118zM238 463h311l-86 414l-66 340h-6l-67 -345z" />
<glyph unicode="B" horiz-adv-x="843" d="M109 0v1425h299q92 0 156.5 -24.5t104.5 -71.5t57 -115.5t17 -154.5q0 -111 -32.5 -184.5t-118.5 -118.5v-8q94 -29 130 -118t36 -212q0 -223 -92.5 -320.5t-272.5 -97.5h-284zM233 115h168q74 0 120 24.5t70.5 67.5t34 100.5t9.5 120.5q0 129 -50 198.5t-173 69.5h-179 v-581zM233 807h168q121 0 170.5 65.5t49.5 188.5q0 121 -53.5 185.5t-182.5 64.5h-152v-504z" />
<glyph unicode="C" horiz-adv-x="786" d="M96 315v752q0 76 16.5 143.5t53.5 117.5t97.5 80t150.5 30q150 0 231.5 -83t81.5 -233l-127 -24q2 111 -47 167t-141 56q-53 0 -89 -20.5t-58.5 -54.5t-33 -77t-10.5 -88v-759q0 -41 10.5 -81t33 -71t58 -49.5t89.5 -18.5q84 0 135 52.5t53 171.5l129 -23 q-4 -158 -89 -237.5t-226 -79.5q-156 0 -237 84.5t-81 244.5z" />
<glyph unicode="D" horiz-adv-x="847" d="M109 0v1425h319q129 0 201.5 -44t101.5 -148q23 -84 23 -212v-306v-304q0 -128 -25 -206q-18 -61 -51 -100t-74 -63t-90 -33t-104 -9h-301zM233 115h181q111 0 161 61.5t50 183.5v705q0 55 -10.5 100t-35 77t-65.5 50.5t-102 18.5h-179v-1196z" />
<glyph unicode="E" horiz-adv-x="739" d="M109 0v1425h596v-116h-472v-523h412v-116h-412v-555h472v-115h-596z" />
<glyph unicode="F" horiz-adv-x="737" d="M109 0v1425h596v-116h-472v-523h412v-116h-412v-670h-124z" />
<glyph unicode="G" horiz-adv-x="829" d="M98 313v744q0 82 15.5 151.5t52.5 120.5t98.5 80t151.5 29q150 0 229.5 -79t83.5 -231l-125 -30v2q0 113 -50 167t-140 54q-53 0 -89 -20.5t-58.5 -54.5t-33 -77t-10.5 -88v-762q0 -41 10.5 -80.5t33 -70.5t58 -49.5t89.5 -18.5h2q86 0 143 50.5t57 138.5v354h-172v111 h297v-453q0 -78 -25.5 -136.5t-70.5 -98t-103.5 -60t-125.5 -20.5q-154 0 -236 83.5t-82 243.5z" />
<glyph unicode="H" horiz-adv-x="860" d="M109 0v1425h124v-641h392v641h127v-1425h-127v674h-392v-674h-124z" />
<glyph unicode="I" horiz-adv-x="374" d="M123 0v1425h129v-1425h-129z" />
<glyph unicode="J" horiz-adv-x="692" d="M-10 88l86 82q27 -29 69.5 -49.5t83.5 -20.5q84 0 141.5 53.5t57.5 170.5v1101h125v-1089q0 -170 -81 -260t-245 -90q-70 0 -134 24.5t-103 77.5z" />
<glyph unicode="K" horiz-adv-x="831" d="M109 0v1425h122v-782h5l397 782h129l-287 -563l342 -862h-131l-285 725l-170 -317v-408h-122z" />
<glyph unicode="L" horiz-adv-x="690" d="M109 0v1425h124v-1310h443v-115h-567z" />
<glyph unicode="M" horiz-adv-x="1122" d="M106 0v1425h127l37 -94l52 -134l51 -134q25 -63 35 -94l149 -398h6l31 84l44 117l45 118l32 85q2 6 15 41l32 82l40 102l39 103l30 80l16 42h129v-1425h-125v1077h-8l-29 -72l-38 -102q-19 -53 -38.5 -101t-27.5 -73q-2 -6 -14 -36l-27 -70l-36 -88l-36 -89l-29 -70 q-12 -30 -14 -36h-70l-31 80l-46 112l-45 113l-31 80l-131 348h-9v-1073h-125z" />
<glyph unicode="N" horiz-adv-x="903" d="M102 0v1425h119l36 -88l53 -128l62 -147l61 -148l53 -128l38 -88l144 -356h8v1083h125v-1425h-119l-36 87l-53 127l-62 147l-61 147l-54 126q-25 56 -37 87l-146 356h-6v-1077h-125z" />
<glyph unicode="O" horiz-adv-x="837" d="M96 319v750q0 76 16.5 143.5t54.5 117.5t100.5 79t152.5 29q92 0 154.5 -26t99.5 -74t53 -114.5t16 -148.5v-723q0 -180 -80.5 -273t-244.5 -93t-243 87.5t-79 245.5zM219 317q0 -41 11.5 -79.5t35 -69.5t61.5 -49.5t91 -18.5q109 0 153.5 70t44.5 168v756q0 45 -10 86 t-32.5 72.5t-60.5 51t-93 19.5q-59 0 -98 -25.5t-61.5 -64.5t-32 -85t-9.5 -87v-744z" />
<glyph unicode="P" horiz-adv-x="800" d="M109 0v1425h284q106 0 177 -28.5t111 -82.5t56.5 -131t16.5 -171q0 -90 -16.5 -168t-57.5 -134.5t-113.5 -88t-183.5 -31.5h-150v-590h-124zM233 707h144q78 0 127 21.5t77.5 61t39 96t10.5 124.5q0 63 -9.5 118.5t-37 95.5t-76.5 63.5t-127 23.5h-148v-604z" />
<glyph unicode="Q" horiz-adv-x="835" d="M96 319v750q0 76 16.5 143.5t54.5 117.5t100.5 79t152.5 29q92 0 154.5 -26t99.5 -74t53 -114.5t16 -148.5v-723q0 -129 -43 -215l121 -94l-65 -80l-119 92q-76 -70 -217 -69q-164 0 -244 87.5t-80 245.5zM219 317q0 -41 11.5 -79.5t35 -69.5t61.5 -49.5t91 -18.5 q78 0 121 35l-129 103l63 77l123 -96q10 25 15 55.5t5 63.5v756q0 45 -10 86t-32.5 72.5t-60.5 51t-93 19.5q-59 0 -98 -25.5t-61.5 -64.5t-32 -85t-9.5 -87v-744z" />
<glyph unicode="R" horiz-adv-x="831" d="M106 0v1425h295q188 0 268.5 -100t80.5 -293q0 -127 -44 -224t-159 -142l110 -334l111 -332h-129l-209 639h-199v-639h-125zM231 752h158q131 0 183.5 70.5t52.5 209.5q0 63 -11.5 114.5t-39 88.5t-74.5 56.5t-119 19.5h-150v-559z" />
<glyph unicode="S" horiz-adv-x="790" d="M68 301l127 27q0 -43 10 -83t33.5 -71t61.5 -49.5t95 -18.5q70 0 110 23t60.5 59.5t26.5 86t6 104.5q0 68 -6 112t-28.5 75.5t-64.5 58t-114 57.5q-102 45 -162.5 88t-92.5 89t-42 98.5t-10 113.5q0 80 19.5 147.5t60.5 115.5t102.5 76t145.5 28q92 0 153.5 -28t98 -73 t52 -99t15.5 -105l-127 -31q0 96 -44 156.5t-155 60.5q-61 0 -99 -23.5t-59.5 -59.5t-28.5 -79t-7 -84q0 -47 8 -84t33.5 -69.5t75 -63.5t133.5 -65q92 -37 145 -77t81 -88t36 -107.5t8 -137.5q0 -90 -16.5 -163t-55.5 -124t-102.5 -79.5t-155.5 -28.5q-86 0 -147.5 24.5 t-101.5 66.5t-59 99t-19 125z" />
<glyph unicode="T" horiz-adv-x="655" d="M6 1311v114h641v-114h-256v-1311h-129v1311h-256z" />
<glyph unicode="U" horiz-adv-x="833" d="M92 319v1104h125v-1106q0 -41 11.5 -79.5t35 -69.5t61 -49.5t91.5 -18.5q109 0 153.5 70t44.5 168v1085h125v-1071q0 -180 -79.5 -273t-243.5 -93q-162 0 -243 87.5t-81 245.5z" />
<glyph unicode="V" horiz-adv-x="792" d="M37 1425h127l145 -753l80 -479h6l82 481l148 751h129l-291 -1427h-144z" />
<glyph unicode="W" horiz-adv-x="1189" d="M37 1425h129l104 -710l58 -465h6l72 461l131 714h118l127 -714l76 -461h6l56 463l104 712h129l-223 -1427h-129l-139 754l-66 381h-6l-64 -388l-139 -747h-127z" />
<glyph unicode="X" horiz-adv-x="741" d="M16 -2l289 739l-274 688h133l207 -563l204 563h136l-281 -688l295 -739h-133l-221 602l-224 -602h-131z" />
<glyph unicode="Y" horiz-adv-x="743" d="M23 1425h131l122 -374l19 -58l27 -84l26 -84l19 -57h6l90 287l123 370h131l-35 -99l-50 -145l-59 -168l-58 -167l-49 -146q-22 -66 -34 -98v-604h-125v604l-34 98l-49 146l-58 167l-58 168l-51 145z" />
<glyph unicode="Z" horiz-adv-x="641" d="M33 0v115l446 1196h-418v114h545v-114l-446 -1196h434v-115h-561z" />
<glyph unicode="[" horiz-adv-x="417" d="M129 -213v1640h256v-84h-145v-1474h145v-82h-256z" />
<glyph unicode="\" horiz-adv-x="436" d="M20 1452h99l295 -1489h-97z" />
<glyph unicode="]" horiz-adv-x="417" d="M61 -131h146v1474h-146v84h254v-1642h-254v84z" />
<glyph unicode="^" d="M20 729l314 690h90l313 -690h-106l-254 578l-252 -578h-105z" />
<glyph unicode="_" horiz-adv-x="1024" d="M0 -156h1024v-102h-1024v102z" />
<glyph unicode="`" horiz-adv-x="716" d="M199 1450l118 43l140 -326l-70 -28z" />
<glyph unicode="a" horiz-adv-x="720" d="M51 274q0 57 12.5 114.5t45 104t86 76t137.5 29.5h178v147q0 72 -33 115t-127 43q-45 0 -93 -25.5t-62 -84.5l-119 36q27 88 98.5 139.5t181.5 51.5q133 0 206 -60.5t73 -211.5v-748h-127v90h-2q-45 -63 -101.5 -82.5t-119.5 -19.5q-66 0 -110 24.5t-71.5 64.5t-40 91 t-12.5 106zM174 281q0 -78 36 -126.5t122 -48.5q82 0 130 45.5t48 131.5v204h-150q-78 0 -132 -45.5t-54 -160.5z" />
<glyph unicode="b" horiz-adv-x="733" d="M82 0v1487h123v-588h4q33 59 93 89t118 30q92 -2 140 -36t73 -91q23 -53 28 -126t7 -159v-143q0 -115 -13 -234q-8 -78 -34.5 -126t-62.5 -73.5t-76 -33.5t-70 -8q-82 0 -125 25.5t-78 72.5h-4v-86h-123zM205 295q0 -84 45 -136.5t123 -52.5q55 0 93 24t56 81 q12 41 15.5 110.5t3.5 165.5q0 106 -3 194.5t-22 131.5q-33 84 -139 84q-49 0 -82 -20.5t-53.5 -53t-28.5 -73.5t-8 -82v-373z" />
<glyph unicode="c" horiz-adv-x="679" d="M68 492q0 53 1 108t5 104.5t9 89.5t15 64q27 74 91.5 118t175.5 44q141 0 206.5 -74t65.5 -207l-129 -18v2q1 13 1 25q0 63 -35 107q-42 52 -116 52q-47 0 -84.5 -22.5t-58.5 -73.5q-16 -39 -19 -129t-6 -213l5 -154q2 -74 12 -110q16 -49 53 -78t96 -29q74 0 114 45 t38 138l129 -23q-6 -272 -287 -272q-61 0 -107 15t-78 42t-51.5 59.5t-27.5 69.5q-6 25 -10 62.5t-5 81.5l-2 90q-1 45 -1 86z" />
<glyph unicode="d" horiz-adv-x="735" d="M63 479q0 123 4.5 220.5t28.5 164.5q25 68 78 112t156 44q72 0 119 -31t69 -69h4v567h125v-1487h-125v86h-4q-33 -47 -77 -72.5t-124 -25.5q-33 0 -72.5 8t-74.5 33.5t-62.5 74t-35.5 125.5q-6 63 -7.5 127t-1.5 123zM190 487q0 -96 3.5 -165.5t15.5 -110.5 q16 -57 52 -81t93 -24q80 0 125 52.5t45 136.5v407q0 82 -41 138.5t-127 56.5q-55 0 -93 -28.5t-54 -88.5q-10 -43 -14.5 -122t-4.5 -171z" />
<glyph unicode="e" horiz-adv-x="716" d="M66 492q0 53 1 106t5 102.5t9 89t15 66.5q29 76 92.5 120t176.5 44q123 0 191.5 -60.5t80.5 -171.5q2 -23 3 -45t1 -45v-225h-451q0 -20 1.5 -38.5t1.5 -39.5q0 -53 3 -108.5t13 -83.5q33 -102 147 -103q78 0 115 46.5t41 121.5l127 -24q-10 -125 -83 -191.5t-206 -66.5 q-63 0 -109 16t-78 42t-51.5 59.5t-27.5 68.5q-6 25 -10 62.5t-5 81.5l-2 90q-1 45 -1 86zM193 575h323v107q0 43 -5 83t-22.5 70.5t-48 49t-82.5 18.5q-45 0 -83.5 -20.5t-61.5 -73.5q-12 -33 -15 -91.5t-5 -142.5z" />
<glyph unicode="f" horiz-adv-x="454" d="M23 899v107h106v251q0 119 62.5 174.5t160.5 55.5h74v-117h-53q-61 0 -88 -35t-27 -88v-241h164v-107h-164v-899h-129v899h-106z" />
<glyph unicode="g" horiz-adv-x="743" d="M68 422v98q0 61 1 124t7 132q8 78 35.5 126t64.5 73.5t77 35t71 9.5q82 0 125 -26.5t77 -73.5h4v86h123v-1076q0 -70 -12 -131t-44 -107t-89 -74t-146 -28q-123 0 -195.5 64.5t-76.5 187.5l125 23q2 -72 39 -116t117 -44t119.5 55.5t39.5 128.5v217h-4q-33 -59 -93 -87.5 t-118 -28.5q-92 0 -141 36.5t-74 96.5q-23 55 -27.5 134t-4.5 165zM195 518q0 -106 3 -194t21 -131q33 -84 139 -84q49 0 82 20.5t53.5 53t28.5 73.5t8 82v373q0 84 -45 136t-125 52q-53 0 -91 -23.5t-56 -80.5q-12 -41 -15 -111t-3 -166z" />
<glyph unicode="h" horiz-adv-x="745" d="M82 0v1487h127v-586h4q35 57 91 88t124 31q63 0 107.5 -20.5t73 -55.5t42 -84t13.5 -106v-754h-129v717q0 78 -36 127t-122 49q-82 0 -126 -54.5t-44 -131.5v-707h-125z" />
<glyph unicode="i" horiz-adv-x="333" d="M100 0v1008h127v-1008h-127zM100 1253v131h129v-131h-129z" />
<glyph unicode="j" horiz-adv-x="333" d="M-35 -295h23q76 0 96 45t20 129v1129h127v-1153q0 -55 -9 -103.5t-33.5 -84.5t-67.5 -56.5t-111 -20.5h-45v115zM104 1255v131h129v-131h-129z" />
<glyph unicode="k" horiz-adv-x="737" d="M86 0v1487h125v-1018h2l69 111l95 156l94 158l68 112h141l-234 -381l58 -127l83 -186l84 -185l58 -127h-137l-29 63l-40 91l-45 103l-45 103l-39 91l-27 63q-12 -18 -34 -54l-44 -76l-44 -77q-22 -37 -34 -55v-252h-125z" />
<glyph unicode="l" horiz-adv-x="387" d="M100 227v1260h125v-1235q0 -74 21.5 -113t91.5 -39h24v-114h-30q-57 0 -101.5 11t-73 38.5t-43 73.5t-14.5 118z" />
<glyph unicode="m" horiz-adv-x="1191" d="M96 0v1008h125v-107h6q35 57 82 88t117 31q82 0 132 -35t75 -94q39 59 97 95q55 34 124 34h8q61 0 106.5 -20.5t73 -56.5t41 -84t13.5 -105v-754h-127v717q0 72 -34 124t-118 52q-72 0 -115 -52.5t-45 -129.5v-711h-125v717q0 72 -32.5 124t-114.5 52q-80 0 -123 -56.5 t-43 -136.5v-700h-123z" />
<glyph unicode="n" horiz-adv-x="741" d="M78 0v1008h127v-107h4q35 57 91 88t124 31q63 0 107 -20.5t73 -55.5t42 -84t13 -106v-754h-129v717q0 78 -32.5 127t-118.5 49q-84 0 -130 -56.5t-46 -136.5v-700h-125z" />
<glyph unicode="o" horiz-adv-x="729" d="M68 406v86q0 53 1 107t5 103.5t9 89t15 64.5q27 74 93.5 119t177.5 45q115 0 177 -45t87 -113q18 -53 23.5 -135t5.5 -164v-100q0 -55 -2.5 -109.5t-8.5 -115.5q-8 -76 -37.5 -125.5t-71.5 -77t-91.5 -38.5t-96.5 -11q-125 0 -186.5 54t-81.5 132q-6 25 -10 62.5t-6 82 t-2 89.5zM193 455q0 -84 2 -149.5t14 -100.5q31 -104 158 -105q59 0 101 35t56 94q6 37 10.5 109t4.5 149q0 43 -1 91l-2 90q-1 43 -5.5 77.5t-10.5 53.5q-16 53 -57 80.5t-96 27.5q-47 0 -88 -20.5t-64 -73.5q-14 -37 -18 -112.5t-4 -180.5v-65z" />
<glyph unicode="p" horiz-adv-x="731" d="M72 -395v1401h123v-86h4q35 47 77.5 73.5t124.5 26.5q33 0 73 -9.5t75 -35t62.5 -73.5t35.5 -126q6 -63 6 -128v-136q0 -113 -4 -208t-28 -163q-25 -68 -77 -110.5t-155 -42.5q-72 0 -120 29.5t-70 68.5h-4v-481h-123zM195 303q0 -82 39.5 -138t125.5 -56q119 0 150 116 q10 43 13 122t3 171q0 96 -3 166t-15 111q-16 57 -51 80.5t-92 23.5q-80 0 -125 -52t-45 -136v-408z" />
<glyph unicode="q" horiz-adv-x="741" d="M68 422v156q0 47 1 95t7 103q8 78 35.5 126t64.5 73.5t77 35t71 9.5q82 0 125 -26.5t77 -73.5h4v86h123v-1405h-123v505h-4q-33 -59 -93 -87.5t-118 -28.5q-98 0 -148 42t-73 109q-16 53 -21 128t-5 153zM195 518q0 -106 4 -194t20 -131q37 -84 139 -84q49 0 82 20.5 t53.5 53t28.5 73.5t8 82v373q0 84 -45 136t-125 52q-53 0 -91 -23.5t-56 -80.5q-12 -41 -15 -111t-3 -166z" />
<glyph unicode="r" horiz-adv-x="503" d="M106 0v1008h127v-127h5q35 80 88 110.5t131 30.5h15q9 0 15 -2v-148q-14 2 -27.5 3.5t-27.5 1.5q-94 0 -146.5 -56.5t-52.5 -173.5v-647h-127z" />
<glyph unicode="s" horiz-adv-x="677" d="M57 252l127 20q-2 -78 39 -125q39 -45 109 -45h6q90 0 124 43t34 127q0 39 -6.5 68t-25 51.5t-51 41t-85.5 38.5q-80 31 -130.5 62.5t-78 66.5t-37.5 74t-10 82q0 117 67.5 191.5t208.5 74.5t209 -70.5t68 -197.5l-131 -19v15q0 75 -38 113q-42 42 -110 42 q-45 0 -74.5 -13t-46 -34.5t-23.5 -48.5t-7 -53q0 -29 7 -52.5t28.5 -45t59.5 -42t99 -41.5q76 -29 122 -59.5t69.5 -67t30.5 -79.5t7 -95q0 -127 -63 -207.5t-213 -80.5q-279 0 -285 266z" />
<glyph unicode="t" horiz-adv-x="460" d="M29 907v101h112v260h125v-260h142v-101h-142v-651q0 -76 29 -107.5t90 -31.5h27v-117h-62q-117 0 -164 65.5t-47 159.5v682h-110z" />
<glyph unicode="u" horiz-adv-x="745" d="M80 254v756h129v-719q0 -86 33.5 -133t119.5 -47q78 0 126.5 56t48.5 136v707h125v-1008h-127v104h-7q-35 -57 -90 -86.5t-123 -29.5q-63 0 -107 19.5t-73 55t-42 84t-13 105.5z" />
<glyph unicode="v" horiz-adv-x="663" d="M10 1008h133q6 -29 20.5 -88.5l29.5 -125.5l28 -127l21 -87l18 -85l26 -123l25 -123q12 -58 19 -85h6q6 27 17.5 85l25.5 125l27 125l18 85l19 86l28 125l28 125l19 88h133l-250 -1008h-143z" />
<glyph unicode="w" horiz-adv-x="1101" d="M20 1006h132l31 -154l42 -203l28 -132l26 -126l22 -110l16 -84h7q14 78 40 203l52 255l73 351h129l68 -334l48 -241l48 -238h6l74 372l21 103l24 120l25 119l20 99h131l-116 -503l-115 -503h-129l-70 303l-51 231l-49 230h-6l-94 -438l-74 -326h-127z" />
<glyph unicode="x" horiz-adv-x="643" d="M12 0l244 516l-233 492h141l160 -383l155 383h146l-230 -492l238 -516h-141l-168 406l-174 -406h-138z" />
<glyph unicode="y" horiz-adv-x="667" d="M10 1006h133q29 -111 54 -221l51 -220l22 -95l25 -104l23 -100l18 -78h6l45 206l45 206l98 406h127l-303 -1182q-12 -45 -29.5 -86t-44 -72t-65.5 -49t-94 -18h-47v108h32q61 0 92 43t52 135l29 113z" />
<glyph unicode="z" horiz-adv-x="602" d="M39 0v117l387 778h-354v111h491v-111l-389 -778h385v-117h-520z" />
<glyph unicode="{" horiz-adv-x="454" d="M49 567v78q39 8 64.5 32.5t41 61.5t20.5 82t5 92v295q0 104 53.5 161.5t145.5 57.5h41v-84h-35q-31 0 -50.5 -17t-29.5 -45t-14 -60.5t-4 -63.5v-266q0 -66 -12.5 -115t-31 -84t-40 -55.5t-39.5 -26.5v-6q20 -6 41.5 -26.5t40 -54.5t30 -81t11.5 -108v-283q0 -31 4 -62.5 t14 -59t29.5 -45t50.5 -17.5h35v-84h-41q-86 0 -142.5 52t-56.5 163v285q0 121 -24.5 194.5t-106.5 89.5z" />
<glyph unicode="|" horiz-adv-x="395" d="M154 -332v1798h98v-1798h-98z" />
<glyph unicode="}" horiz-adv-x="454" d="M51 -133h33q31 0 51.5 14.5t30.5 38t14 52t4 59.5v303q0 123 40 189.5t81 80.5v6q-39 14 -80 83t-41 198v266q0 31 -4 63.5t-14 60.5t-30.5 45t-51.5 17h-33v84h70q86 0 128 -68.5t42 -166.5v-279q0 -47 6 -92t20.5 -82t39 -61.5t63.5 -32.5v-78q-82 -16 -105.5 -90 t-23.5 -194v-285q0 -100 -49 -157.5t-127 -57.5h-64v84z" />
<glyph unicode="~" d="M25 463q33 55 81 94t111 39q49 0 90 -14.5t80 -33t75 -32.5t73 -14q39 0 62.5 16.5t59.5 61.5l72 -45q-35 -59 -82 -101.5t-112 -42.5q-39 0 -78 15.5l-79 33t-80 32.5t-83 15q-37 0 -62.5 -16t-60.5 -57z" />
<glyph unicode="&#xa2;" horiz-adv-x="688" d="M68 428v74q0 51 1 105.5t4 101.5t9 86t14 63q23 66 77 108t146 52v217h60v-215q133 -4 195.5 -78t62.5 -203l-129 -18v6q0 82 -34 127t-95 51v-805q20 0 35 9q90 31 94 172l127 -23q-6 -258 -256 -270v-224h-60v224q-109 8 -163 62t-72 122q-10 39 -13 111.5t-3 144.5z M190 455q2 -70 3.5 -141.5t13.5 -108.5q27 -88 112 -103v799q-35 -4 -62.5 -26.5t-43.5 -63.5q-16 -39 -18 -129t-5 -213v-14z" />
<glyph unicode="&#xa3;" horiz-adv-x="780" d="M94 0v115q59 111 93 219t34 248q0 14 -1 28.5t-3 28.5h-123v106h115q-10 61 -25.5 111.5t-31 95.5t-25.5 88t-10 90q0 139 79.5 223.5t221.5 84.5q68 0 125 -19.5t99 -57.5t65.5 -96.5t21.5 -136.5l-127 -30q2 111 -45 167t-137 58q-80 0 -126 -51t-46 -131q0 -43 10 -85 t24 -88l27 -101q14 -54 25 -122h207v-106h-197q0 -8 1 -26.5t1 -26.5q0 -145 -30.5 -254t-82.5 -217h472v-115h-611z" />
<glyph unicode="&#xa5;" d="M49 1425h121l203 -659h6l201 659h125l-252 -761h223v-82h-242v-136h242v-84h-242v-364h-117v364h-233v84h233v136h-233v82h213z" />
<glyph unicode="&#xa8;" horiz-adv-x="722" d="M150 1202v131h114v-131h-114zM459 1202v131h112v-131h-112z" />
<glyph unicode="&#xa9;" horiz-adv-x="1439" d="M104 698q0 154 40 286t118 228.5t193.5 150.5t267.5 54q150 0 264.5 -54t193.5 -150.5t119.5 -228.5t40.5 -286t-40.5 -283.5t-119.5 -226t-194 -150.5t-264 -54q-152 0 -267.5 54t-193.5 150.5t-118 226t-40 283.5zM201 698q0 -133 34.5 -247.5t101 -199.5t164 -133 t222.5 -48q129 0 227.5 49t164 133t99 198.5t33.5 247.5t-33.5 249t-100 202t-165 135t-225.5 49q-131 0 -229.5 -50t-163 -136t-97 -202t-32.5 -247zM500 481v402q0 109 65.5 166t163.5 57q45 0 87 -13.5t73 -41t48 -68.5t15 -96l-90 -21q0 72 -35.5 112t-101.5 40 q-57 0 -93 -37t-36 -88v-422q0 -53 37 -88t92 -35q129 0 135 150l92 -19q0 -113 -65.5 -167t-157.5 -54t-160.5 55t-68.5 168z" />
<glyph unicode="&#xab;" horiz-adv-x="790" d="M84 475l219 381h125l-217 -381l217 -381h-125zM375 475l219 381h125l-215 -381l215 -381h-125z" />
<glyph unicode="&#xad;" horiz-adv-x="684" d="M100 530v113h506v-113h-506z" />
<glyph unicode="&#xae;" horiz-adv-x="995" d="M109 1004q0 98 25.5 181t74.5 143.5t121.5 94t169.5 33.5q92 0 164.5 -33.5t122 -94t75 -143.5t25.5 -181q0 -96 -25.5 -177.5t-75 -141.5t-122 -94t-164.5 -34q-96 0 -169 34t-122 94t-74.5 141.5t-25.5 177.5zM182 1008q0 -84 21.5 -153t61.5 -120t99.5 -78.5 t135.5 -27.5q80 0 139 29.5t98 81t57.5 120t18.5 148.5t-20.5 150.5t-60.5 122.5t-98.5 82t-133.5 30q-80 0 -139.5 -30t-99.5 -82t-59.5 -122.5t-19.5 -150.5zM362 731v541h134q150 0 149 -164q0 -43 -15.5 -82t-58.5 -61l43 -117l45 -117h-84l-77 223h-60v-223h-76z M438 1020h56q43 0 59 24.5t16 63.5q0 45 -17 69.5t-65 24.5h-49v-182z" />
<glyph unicode="&#xb4;" horiz-adv-x="716" d="M289 1167l137 326l121 -43l-189 -311z" />
<glyph unicode="&#xb8;" horiz-adv-x="882" d="M209 -387l22 61q35 -16 65 -20t54 -4q37 0 62.5 19.5t25.5 58.5q0 41 -27.5 64.5t-88.5 21.5l-33 26l53 191l66 -4l-37 -148q47 -4 77.5 -19.5t49 -37t25.5 -47t7 -45.5q0 -25 -9 -51.5t-28.5 -48t-50 -36t-75.5 -14.5q-23 0 -69 5t-89 28z" />
<glyph unicode="&#xbb;" horiz-adv-x="790" d="M86 94l215 381l-215 381h123l219 -381l-219 -381h-123zM377 94l217 381l-217 381h125l219 -381l-219 -381h-125z" />
<glyph unicode="&#x2c6;" horiz-adv-x="722" d="M74 1176l252 268h80l239 -264l-55 -50l-230 195l-231 -195z" />
<glyph unicode="&#x2da;" horiz-adv-x="720" d="M205 1294q0 74 51 125t125 51q72 0 123 -51t51 -125t-51 -125t-123 -51q-74 0 -125 51t-51 125zM276 1292q0 -43 31 -73.5t74 -30.5q41 0 71.5 30.5t30.5 73.5t-30.5 74t-71.5 31q-43 0 -74 -31t-31 -74z" />
<glyph unicode="&#x2dc;" horiz-adv-x="741" d="M88 1225q25 51 69 93t95 42q31 0 57.5 -12.5l54 -26.5t56.5 -26.5t61 -12.5q51 0 105 80l65 -43q-33 -68 -79 -103.5t-89 -35.5q-31 0 -60.5 12t-57.5 26l-56 25q-27 12 -51 12q-53 0 -102 -71z" />
<glyph unicode="&#x410;" horiz-adv-x="790" d="M25 0l307 1425h127l313 -1425h-125l-76 344h-354l-74 -344h-118zM238 463h311l-86 414l-66 340h-6l-67 -345z" />
<glyph unicode="&#x411;" horiz-adv-x="800" d="M98 0v1425h568v-116h-443v-486h152q111 0 183.5 -29.5t113.5 -83t57 -127t16 -161.5q0 -94 -16 -172t-57 -133.5t-110.5 -86t-178.5 -30.5h-285zM223 121h150q78 0 126 23.5t75.5 63.5t37 94t9.5 118q0 63 -11.5 115.5t-40 90.5t-77 58.5t-123.5 20.5h-146v-584z" />
<glyph unicode="&#x412;" horiz-adv-x="843" d="M109 0v1425h299q92 0 156.5 -24.5t104.5 -71.5t57 -115.5t17 -154.5q0 -111 -32.5 -184.5t-118.5 -118.5v-8q94 -29 130 -118t36 -212q0 -223 -92.5 -320.5t-272.5 -97.5h-284zM233 115h168q74 0 120 24.5t70.5 67.5t34 100.5t9.5 120.5q0 129 -50 198.5t-173 69.5h-179 v-581zM233 807h168q121 0 170.5 65.5t49.5 188.5q0 121 -53.5 185.5t-182.5 64.5h-152v-504z" />
<glyph unicode="&#x413;" horiz-adv-x="724" d="M109 0v1425h573v-116h-449v-1309h-124z" />
<glyph unicode="&#x414;" horiz-adv-x="937" d="M8 106l72 9q31 31 53.5 66.5t35.5 91t20.5 136t11.5 199.5l20 817h610v-1314h76v-381h-112v270h-674v-270h-113v376zM225 111h482v1202h-371l-19 -705q-4 -176 -22.5 -294.5t-69.5 -202.5z" />
<glyph unicode="&#x415;" horiz-adv-x="739" d="M109 0v1425h596v-116h-472v-523h412v-116h-412v-555h472v-115h-596z" />
<glyph unicode="&#x416;" horiz-adv-x="1341" d="M41 0l102 463q23 106 67 180t130 98q-68 23 -114 94.5t-68 176.5l-95 413h115l101 -417q16 -70 43.5 -112t61.5 -65.5t69.5 -30.5t68.5 -7h84v632h127v-632h84q33 0 69 7t69.5 30.5t61 65.5t44.5 112l100 417h115l-92 -413q-25 -104 -71 -176t-114 -95 q88 -25 132.5 -98.5t66.5 -179.5l102 -463h-126l-97 446q-16 72 -41.5 116t-57.5 68.5t-69 33t-75 8.5h-101v-672h-127v672h-98q-39 0 -77 -8.5t-69.5 -33t-58.5 -68.5t-41 -116l-96 -446h-125z" />
<glyph unicode="&#x417;" horiz-adv-x="772" d="M27 291v8l120 25q0 -125 53.5 -174.5t139.5 -49.5q43 0 78 13.5t61.5 45t41 84t14.5 130.5v65q0 250 -191 250h-74v113h84q66 0 103 22.5t55 61.5t22.5 90t4.5 110q0 66 -15.5 111t-41 72.5t-61.5 40t-77 12.5q-92 0 -143 -59.5t-51 -163.5l-121 28q2 78 28.5 136.5 t69.5 97.5t100.5 58.5t120.5 19.5q133 0 214 -64.5t95 -216.5q4 -20 5 -42v-46q0 -37 -4.5 -85t-18.5 -94t-39 -84t-68 -56v-5q41 -18 66 -48.5t39 -67.5t18 -77t7 -77v-78v-46q0 -22 -3 -44q-10 -164 -96 -242.5t-223 -78.5q-66 0 -122 17t-99 55t-67.5 95.5t-24.5 137.5z " />
<glyph unicode="&#x418;" horiz-adv-x="874" d="M104 0v1425h123v-1122l9 -2l415 1124h121v-1425h-125v1120h-6l-420 -1120h-117z" />
<glyph unicode="&#x419;" horiz-adv-x="874" d="M104 0v1425h123v-1122l9 -2l415 1124h121v-1425h-125v1120h-6l-420 -1120h-117zM164 1702h104q8 -53 50 -98t104 -45q66 0 107.5 43t48.5 100h102q-4 -39 -20.5 -81t-48 -78t-79 -58.5t-110.5 -22.5q-68 0 -116 22.5t-78.5 58.5t-46 78t-17.5 81z" />
<glyph unicode="&#x41a;" horiz-adv-x="849" d="M109 0v1425h122v-632h115q33 0 69 7t69.5 30.5t61 65.5t44.5 112l100 417h115l-92 -413q-25 -104 -71 -176t-114 -95q88 -25 132.5 -98.5t66.5 -179.5l102 -463h-127l-96 446q-16 72 -41.5 116t-57.5 68.5t-70 33t-77 8.5h-129v-672h-122z" />
<glyph unicode="&#x41b;" horiz-adv-x="882" d="M8 53q43 31 76 67t56.5 97.5t34.5 159.5t11 254v794h588v-1425h-125v1309h-348v-600q0 -193 -11 -318t-38 -207t-73 -132t-113 -91z" />
<glyph unicode="&#x41c;" horiz-adv-x="1122" d="M106 0v1425h127l37 -94l52 -134l51 -134q25 -63 35 -94l149 -398h6l31 84l44 117l45 118l32 85q2 6 15 41l32 82l40 102l39 103l30 80l16 42h129v-1425h-125v1077h-8l-29 -72l-38 -102q-19 -53 -38.5 -101t-27.5 -73q-2 -6 -14 -36l-27 -70l-36 -88l-36 -89l-29 -70 q-12 -30 -14 -36h-70l-31 80l-46 112l-45 113l-31 80l-131 348h-9v-1073h-125z" />
<glyph unicode="&#x41d;" horiz-adv-x="860" d="M109 0v1425h124v-641h392v641h127v-1425h-127v674h-392v-674h-124z" />
<glyph unicode="&#x41e;" horiz-adv-x="837" d="M96 319v750q0 76 16.5 143.5t54.5 117.5t100.5 79t152.5 29q92 0 154.5 -26t99.5 -74t53 -114.5t16 -148.5v-723q0 -180 -80.5 -273t-244.5 -93t-243 87.5t-79 245.5zM219 317q0 -41 11.5 -79.5t35 -69.5t61.5 -49.5t91 -18.5q109 0 153.5 70t44.5 168v756q0 45 -10 86 t-32.5 72.5t-60.5 51t-93 19.5q-59 0 -98 -25.5t-61.5 -64.5t-32 -85t-9.5 -87v-744z" />
<glyph unicode="&#x41f;" horiz-adv-x="841" d="M109 0v1425h626v-1425h-127v1307h-375v-1307h-124z" />
<glyph unicode="&#x420;" horiz-adv-x="800" d="M109 0v1425h284q106 0 177 -28.5t111 -82.5t56.5 -131t16.5 -171q0 -90 -16.5 -168t-57.5 -134.5t-113.5 -88t-183.5 -31.5h-150v-590h-124zM233 707h144q78 0 127 21.5t77.5 61t39 96t10.5 124.5q0 63 -9.5 118.5t-37 95.5t-76.5 63.5t-127 23.5h-148v-604z" />
<glyph unicode="&#x421;" horiz-adv-x="786" d="M96 315v752q0 76 16.5 143.5t53.5 117.5t97.5 80t150.5 30q150 0 231.5 -83t81.5 -233l-127 -24q2 111 -47 167t-141 56q-53 0 -89 -20.5t-58.5 -54.5t-33 -77t-10.5 -88v-759q0 -41 10.5 -81t33 -71t58 -49.5t89.5 -18.5q84 0 135 52.5t53 171.5l129 -23 q-4 -158 -89 -237.5t-226 -79.5q-156 0 -237 84.5t-81 244.5z" />
<glyph unicode="&#x422;" horiz-adv-x="655" d="M6 1311v114h641v-114h-256v-1311h-129v1311h-256z" />
<glyph unicode="&#x423;" horiz-adv-x="761" d="M20 1423h125l246 -876h6l219 878h121l-297 -1116q-29 -109 -60.5 -172t-65 -95t-71.5 -41t-77 -11h-64v102h60q47 0 88 43t67 146l21 81z" />
<glyph unicode="&#x424;" horiz-adv-x="999" d="M90 453v551q0 82 31 144t80 105t111.5 66.5t123.5 23.5v82h127v-82q63 -4 126 -25.5t113 -63.5t80.5 -104.5t30.5 -145.5v-551q0 -84 -27.5 -146.5t-75.5 -104.5t-111.5 -64.5t-135.5 -26.5v-111h-125v111h-2q-72 2 -134 24.5t-109.5 65.5t-75 105.5t-27.5 146.5z M213 453q0 -55 18.5 -96.5t49 -70t71.5 -44t86 -17.5v1002h-2q-43 -2 -83 -16.5t-70.5 -42t-50 -68.5t-19.5 -96v-551zM563 225q98 4 161.5 60.5t63.5 167.5v551q0 55 -20 96t-52 68.5t-73 43t-80 15.5v-1002z" />
<glyph unicode="&#x425;" horiz-adv-x="741" d="M16 -2l289 739l-274 688h133l207 -563l204 563h136l-281 -688l295 -739h-133l-221 602l-224 -602h-131z" />
<glyph unicode="&#x426;" horiz-adv-x="856" d="M109 0v1425h124v-1306h385v1306h127v-1306h72v-387h-112v268h-596z" />
<glyph unicode="&#x427;" horiz-adv-x="815" d="M72 924v501h121v-499q0 -127 53 -176.5t172 -49.5q33 0 80 8.5t88 24.5v692h127v-1425h-127v633q-41 -16 -96.5 -24.5t-100.5 -8.5q-74 0 -132 16.5t-99 54.5t-63.5 100.5t-22.5 152.5z" />
<glyph unicode="&#x428;" horiz-adv-x="1245" d="M109 0v1425h124v-1304h324v1304h127v-1304h326v1304h127v-1425h-1028z" />
<glyph unicode="&#x429;" horiz-adv-x="1255" d="M109 0v1425h124v-1304h324v1304h127v-1304h326v1304h127v-1304h75v-389h-112v268h-991z" />
<glyph unicode="&#x42a;" horiz-adv-x="1050" d="M27 1309v116h448v-602h150q111 0 183.5 -29.5t113.5 -83t57 -127t16 -161.5q0 -94 -16 -172t-57 -133.5t-111 -86t-178 -30.5h-285v1309h-321zM475 121h148q78 0 127 23.5t76.5 63.5t36.5 94t9 118q0 63 -11 115.5t-39.5 90.5t-78 58.5t-125.5 20.5h-143v-584z" />
<glyph unicode="&#x42b;" horiz-adv-x="1105" d="M104 0v1425h125v-602h152q111 0 183.5 -29.5t113.5 -83t57.5 -127t16.5 -161.5q0 -94 -16.5 -172t-57.5 -133.5t-110.5 -86t-178.5 -30.5h-285zM229 119h150q78 0 126 23.5t75.5 63.5t37 95t9.5 117q0 63 -11.5 116.5t-40 91.5t-76.5 58.5t-124 20.5h-146v-586zM864 0 v1425h127v-1425h-127z" />
<glyph unicode="&#x42c;" horiz-adv-x="800" d="M98 0v1425h125v-602h150q111 0 183.5 -29.5t113.5 -83t57 -127t16 -161.5q0 -94 -16 -172t-56 -133.5t-111 -86t-177 -30.5h-285zM223 119h148q78 0 127 23.5t76.5 63.5t37 95t9.5 117q0 63 -11.5 116.5t-40 91.5t-78 58.5t-124.5 20.5h-144v-586z" />
<glyph unicode="&#x42d;" horiz-adv-x="784" d="M43 256l127 27q10 -96 60.5 -140.5t127.5 -44.5q55 0 91 20.5t58.5 54.5t32 77t9.5 90v328h-344v123h344v307q0 223 -191 223q-80 0 -131 -49t-61 -139l-123 28q16 133 100 205t224 72q86 0 145 -27t95 -74t52.5 -112.5t16.5 -143.5v-745q0 -180 -82 -265t-240 -85 q-131 0 -213 67.5t-98 202.5z" />
<glyph unicode="&#x42e;" horiz-adv-x="1122" d="M109 0v1425h124v-641h170v293q0 76 17.5 141.5t54.5 114.5t96.5 77t143.5 28q86 0 145.5 -26t96 -72t54 -112.5t17.5 -148.5v-735q0 -178 -81 -268t-232 -90q-150 0 -231 86t-81 241v361h-170v-674h-124zM526 315q0 -41 11.5 -79.5t34 -68.5t58.5 -48.5t83 -18.5 q98 0 144 69t46 167v758q0 45 -10 86t-32.5 72.5t-58.5 51t-87 19.5q-55 0 -92 -24.5t-58.5 -62.5t-30 -84t-8.5 -87v-750z" />
<glyph unicode="&#x42f;" horiz-adv-x="851" d="M45 0l88 444q16 84 49 151t105 101q-109 31 -149 116t-40 208q0 193 85 299t272 106h290v-1425h-124v653h-138q-33 0 -67.5 -8t-65.5 -32.5t-55.5 -68.5t-38.5 -118l-84 -426h-127zM223 1020q0 -133 61.5 -194.5t180.5 -61.5h156v545h-146q-72 0 -120 -21.5t-76.5 -59.5 t-42 -91.5t-13.5 -116.5z" />
<glyph unicode="&#x430;" horiz-adv-x="720" d="M51 274q0 57 12.5 114.5t45 104t86 76t137.5 29.5h178v147q0 72 -33 115t-127 43q-45 0 -93 -25.5t-62 -84.5l-119 36q27 88 98.5 139.5t181.5 51.5q133 0 206 -60.5t73 -211.5v-748h-127v90h-2q-45 -63 -101.5 -82.5t-119.5 -19.5q-66 0 -110 24.5t-71.5 64.5t-40 91 t-12.5 106zM174 281q0 -78 36 -126.5t122 -48.5q82 0 130 45.5t48 131.5v204h-150q-78 0 -132 -45.5t-54 -160.5z" />
<glyph unicode="&#x431;" horiz-adv-x="735" d="M72 477v223q2 154 14 263.5t40 185.5t72 124t111 83q37 18 69 31.5t64 25.5l68 26q35 13 76 31l23 -46l22 -46q-41 -23 -73 -35l-62 -24l-66 -27q-35 -14 -80 -39q-63 -35 -104 -110q-29 -51 -37 -124t-10 -151h4q20 35 48 56.5t54.5 34t51 16.5t42.5 4q111 0 164 -47 t76 -113q8 -27 13 -68.5t8.5 -92t3.5 -104.5v-105q0 -55 -1 -102.5t-8 -108.5q-8 -76 -37.5 -125.5t-71.5 -77t-90 -38.5t-96 -11q-63 0 -109 14t-78 40t-52.5 59.5t-30.5 72.5q-6 25 -10 59.5t-5 76.5l-2 85q-1 43 -1 84zM194 546q-1 -42 1 -116q2 -80 4 -135t12 -90 q35 -106 160 -107q66 0 105.5 36t53.5 95q8 35 10.5 100.5t2.5 141.5v74q0 41 -2 81t-5.5 73.5t-9.5 54.5q-14 53 -49 82.5t-98 29.5q-106 0 -154 -102q-27 -51 -28 -137q-2 -39 -3 -81z" />
<glyph unicode="&#x432;" horiz-adv-x="757" d="M92 0v1006h266q166 0 239 -70t73 -197q0 -72 -23.5 -123t-81.5 -84h2q66 -29 90.5 -92t24.5 -139q0 -162 -83 -231.5t-243 -69.5h-264zM219 117h148q61 0 99 14t59.5 41t28.5 61.5t7 75.5q0 80 -41 124t-143 44h-158v-360zM219 582h146q98 0 139 41t41 118q0 76 -45 115 t-150 39h-131v-313z" />
<glyph unicode="&#x433;" horiz-adv-x="645" d="M94 0v1008h514v-113h-387v-895h-127z" />
<glyph unicode="&#x434;" horiz-adv-x="849" d="M29 102l63 11q27 29 43.5 57.5t27.5 68.5t16 97t7 147l15 525h540v-895h72v-371h-117v258h-551v-258h-116v360zM236 113h378v782h-295l-14 -422q-4 -129 -19 -218t-50 -142z" />
<glyph unicode="&#x435;" horiz-adv-x="716" d="M66 492q0 53 1 106t5 102.5t9 89t15 66.5q29 76 92.5 120t176.5 44q123 0 191.5 -60.5t80.5 -171.5q2 -23 3 -45t1 -45v-225h-451q0 -20 1.5 -38.5t1.5 -39.5q0 -53 3 -108.5t13 -83.5q33 -102 147 -103q78 0 115 46.5t41 121.5l127 -24q-10 -125 -83 -191.5t-206 -66.5 q-63 0 -109 16t-78 42t-51.5 59.5t-27.5 68.5q-6 25 -10 62.5t-5 81.5l-2 90q-1 45 -1 86zM193 575h323v107q0 43 -5 83t-22.5 70.5t-48 49t-82.5 18.5q-45 0 -83.5 -20.5t-61.5 -73.5q-12 -33 -15 -91.5t-5 -142.5z" />
<glyph unicode="&#x436;" horiz-adv-x="1157" d="M31 0l86 328q20 74 51 127t100 69q-55 16 -88 66.5t-53 124.5l-78 291h121l80 -297q12 -49 33.5 -78t48 -44.5t54.5 -20.5t56 -5h74v445h125v-445h74q27 0 55.5 5t55 20.5t48 44t33.5 78.5l80 297h121l-78 -291q-20 -74 -53 -124t-88 -67q70 -16 100.5 -69.5t50.5 -126.5 l86 -328h-125l-73 295q-12 49 -31.5 81t-44.5 49t-54.5 23.5t-62.5 6.5h-94v-455h-125v455h-94q-35 0 -64.5 -6.5t-54 -23.5t-43 -49t-31.5 -81l-73 -295h-125z" />
<glyph unicode="&#x437;" horiz-adv-x="679" d="M16 238l123 18q4 -82 48 -118t116 -36q31 0 60.5 9.5t53 32t38 58.5t14.5 89q0 180 -127 180h-100v111h106q57 0 89 37.5t32 123.5q0 78 -43 119t-115 41t-113.5 -37t-47.5 -114q-6 2 -23.5 5t-37 8t-37 8t-21.5 5q10 121 88 180.5t192 59.5q63 0 115.5 -15.5t90.5 -47 t58.5 -83t20.5 -122.5q0 -68 -19.5 -131.5t-84.5 -90.5v-4q70 -25 87 -89t17 -146q0 -84 -24.5 -141.5t-66.5 -92.5t-95.5 -50t-110.5 -15q-55 0 -104.5 13t-87 43t-61.5 77t-30 115z" />
<glyph unicode="&#x438;" horiz-adv-x="794" d="M88 0v1006h123v-775h2l182 389l183 386h127v-1006h-127v776h-3l-366 -776h-121z" />
<glyph unicode="&#x439;" horiz-adv-x="794" d="M88 0v1006h123v-775h2l182 389l183 386h127v-1006h-127v776h-3l-366 -776h-121zM137 1393h105q8 -53 50 -98.5t103 -45.5q66 0 108 43t48 101h102q-4 -39 -20.5 -81t-48 -78t-78.5 -58.5t-111 -22.5q-68 0 -116 22.5t-78.5 58.5t-46 78t-17.5 81z" />
<glyph unicode="&#x43a;" horiz-adv-x="737" d="M76 0v1006h127v-445h100q27 0 55.5 5t55 20.5t48 44t34.5 78.5l79 297h121l-78 -291q-20 -74 -53 -124t-88 -67q70 -16 100.5 -69.5t51.5 -126.5l86 -328h-125l-74 295q-12 49 -31.5 81t-44 49t-54.5 23.5t-62 6.5h-121v-455h-127z" />
<glyph unicode="&#x43b;" horiz-adv-x="755" d="M10 59q43 29 73 60t47 72.5t24.5 101t7.5 149.5v566h518v-1008h-129v895h-275v-463q0 -98 -10 -173t-34.5 -130t-64.5 -95t-99 -69z" />
<glyph unicode="&#x43c;" horiz-adv-x="991" d="M92 0v1006h123l31 -65l40 -87l45 -99l48 -104l66 -142l49 -99h2l127 272l157 324h119v-1006h-127v735h-6l-121 -260l-59 -122l-60 -120h-67l-117 238l-25 51l-34 74l-36 74l-26 51l-2 -2v-719h-127z" />
<glyph unicode="&#x43d;" horiz-adv-x="761" d="M94 0v1008h127v-437h320v437h131v-1008h-131v461h-320v-461h-127z" />
<glyph unicode="&#x43e;" horiz-adv-x="729" d="M68 406v86q0 53 1 107t5 103.5t9 89t15 64.5q27 74 93.5 119t177.5 45q115 0 177 -45t87 -113q18 -53 23.5 -135t5.5 -164v-100q0 -55 -2.5 -109.5t-8.5 -115.5q-8 -76 -37.5 -125.5t-71.5 -77t-91.5 -38.5t-96.5 -11q-125 0 -186.5 54t-81.5 132q-6 25 -10 62.5t-6 82 t-2 89.5zM193 455q0 -84 2 -149.5t14 -100.5q31 -104 158 -105q59 0 101 35t56 94q6 37 10.5 109t4.5 149q0 43 -1 91l-2 90q-1 43 -5.5 77.5t-10.5 53.5q-16 53 -57 80.5t-96 27.5q-47 0 -88 -20.5t-64 -73.5q-14 -37 -18 -112.5t-4 -180.5v-65z" />
<glyph unicode="&#x43f;" horiz-adv-x="770" d="M96 0v1008h580v-1008h-127v897h-326v-897h-127z" />
<glyph unicode="&#x440;" horiz-adv-x="731" d="M72 -395v1401h123v-86h4q35 47 77.5 73.5t124.5 26.5q33 0 73 -9.5t75 -35t62.5 -73.5t35.5 -126q6 -63 6 -128v-136q0 -113 -4 -208t-28 -163q-25 -68 -77 -110.5t-155 -42.5q-72 0 -120 29.5t-70 68.5h-4v-481h-123zM195 303q0 -82 39.5 -138t125.5 -56q119 0 150 116 q10 43 13 122t3 171q0 96 -3 166t-15 111q-16 57 -51 80.5t-92 23.5q-80 0 -125 -52t-45 -136v-408z" />
<glyph unicode="&#x441;" horiz-adv-x="679" d="M68 492q0 53 1 108t5 104.5t9 89.5t15 64q27 74 91.5 118t175.5 44q141 0 206.5 -74t65.5 -207l-129 -18v2q8 80 -34 132t-116 52q-47 0 -84.5 -22.5t-58.5 -73.5q-16 -39 -19 -129t-6 -213l5 -154q2 -74 12 -110q16 -49 53 -78t96 -29q74 0 114 45t38 138l129 -23 q-6 -272 -287 -272q-61 0 -107 15t-78 42t-51.5 59.5t-27.5 69.5q-6 25 -10 62.5t-5 81.5l-2 90q-1 45 -1 86z" />
<glyph unicode="&#x442;" horiz-adv-x="581" d="M4 895v113h574v-113h-226v-895h-125v895h-223z" />
<glyph unicode="&#x443;" horiz-adv-x="667" d="M10 1006h133q29 -111 54 -221l51 -220l22 -95l25 -104l23 -100l18 -78h6l45 206l45 206l98 406h127l-303 -1182q-12 -45 -29.5 -86t-44 -72t-65.5 -49t-94 -18h-47v108h32q61 0 92 43t52 135l29 113z" />
<glyph unicode="&#x444;" horiz-adv-x="921" d="M70 403v121q0 43 2 91.5t6 94.5t11 83.5t17 60.5q35 74 106 119t185 49v389h123q0 -98 1 -194.5t1 -194.5q141 -6 218 -68.5t96 -167.5q10 -55 12 -118.5t2 -130.5v-128q0 -65 -4 -124q-4 -61 -20.5 -110.5t-51.5 -88.5q-72 -86 -252 -104q0 -96 -1 -190.5t-1 -190.5 h-121v381q-106 12 -175.5 41.5t-110.5 109.5q-23 41 -31 89t-10 104q-2 34 -2 77zM193 446q0 -35 1 -73.5t1 -73.5q2 -35 7 -62.5t15 -46.5q23 -43 66 -66.5t114 -29.5v807q-92 -6 -143 -50t-55 -128q-4 -59 -5 -131t-1 -146zM520 94q66 4 112 30t68 66q14 25 19.5 55.5 t7.5 65.5l-2 293q0 61 -4 116.5t-24.5 95.5t-61.5 63.5t-115 21.5v-807z" />
<glyph unicode="&#x445;" horiz-adv-x="643" d="M12 0l244 516l-233 492h141l160 -383l155 383h146l-230 -492l238 -516h-141l-168 406l-174 -406h-138z" />
<glyph unicode="&#x446;" horiz-adv-x="768" d="M94 0v1008h127v-889h320v889h129v-889h67v-377h-116v258h-527z" />
<glyph unicode="&#x447;" horiz-adv-x="712" d="M53 623v385h127v-349q0 -82 29 -123.5t117 -41.5q43 0 93 17t89 46v451h125v-1008h-127v444q-51 -33 -109.5 -49t-109.5 -16q-123 0 -178.5 62.5t-55.5 181.5z" />
<glyph unicode="&#x448;" horiz-adv-x="1132" d="M96 0v1008h125v-889h279v889h127v-889h284v889h125v-1008h-940z" />
<glyph unicode="&#x449;" horiz-adv-x="1157" d="M96 0v1008h123v-889h281v889h127v-889h280v889h127v-889h68v-355h-113v236h-893z" />
<glyph unicode="&#x44a;" horiz-adv-x="931" d="M27 895v113h405v-406h119q100 0 163.5 -23.5t100.5 -63.5t51.5 -92t14.5 -112q0 -68 -14.5 -125t-50.5 -99t-98.5 -64.5t-160.5 -22.5h-254v895h-276zM432 119h117q63 0 104 16.5t63.5 43t31 60t8.5 68.5q0 39 -10.5 71t-35 55.5t-64.5 36.5t-101 13h-113v-364z" />
<glyph unicode="&#x44b;" horiz-adv-x="987" d="M90 0v1008h129v-406h121q100 0 163.5 -23.5t100.5 -63.5t51.5 -92t14.5 -112q0 -68 -14.5 -125t-50.5 -99t-98.5 -64.5t-160.5 -22.5h-256zM219 119h119q63 0 103 16.5t62.5 43t31 60t8.5 68.5q0 39 -10.5 71t-34 55.5t-63.5 36.5t-101 13h-115v-364zM758 0v1008h129 v-1008h-129z" />
<glyph unicode="&#x44c;" horiz-adv-x="710" d="M86 0v1008h127v-406h121q100 0 163.5 -23.5t100.5 -63.5t51.5 -92t14.5 -112q0 -68 -14.5 -125t-50.5 -99t-98.5 -64.5t-158.5 -22.5h-256zM213 119h119q63 0 104 16.5t63.5 43t31 60t8.5 68.5q0 39 -10.5 71t-35 55.5t-64.5 36.5t-99 13h-117v-364z" />
<glyph unicode="&#x44d;" horiz-adv-x="692" d="M45 225q6 0 24.5 3l40 6.5t40 5.5t24.5 4q6 -68 44 -106t106 -38q66 0 100.5 28t50.5 79q10 33 12 94t2 154h-299v114h297q-2 86 -5 148.5t-15 93.5q-23 53 -59.5 74.5t-83.5 21.5q-61 0 -102.5 -39t-45.5 -110l-131 22q10 106 83 174t202 68q113 0 171 -44t85 -118 q8 -25 14 -65.5t9 -90t4 -103.5t1 -107q0 -41 -1 -86l-2 -91q-1 -45 -5 -82.5t-10 -62.5q-10 -37 -28.5 -69.5t-49.5 -59.5t-78 -42t-110 -15q-133 0 -204 62t-81 177z" />
<glyph unicode="&#x44e;" horiz-adv-x="974" d="M78 0v1006h125v-437h135q2 88 8 167t21 120q27 74 88 117t172 43q104 0 159.5 -35t79.5 -92q27 -59 33 -157.5t6 -194.5v-66q0 -57 -2 -115.5t-8 -117.5q-8 -76 -36 -125.5t-67.5 -77t-87 -38.5t-92.5 -11q-121 0 -179 54t-79 132q-6 20 -9 53t-4 73l-2 82q-1 42 -1 81 h-135v-461h-125zM459 412q2 -70 3 -123t11 -84q31 -104 150 -105q23 0 46 7.5t44.5 22.5t37 39t21.5 56q6 37 8 110t2 150q0 90 -3 179.5t-13 130.5q-29 109 -143 108q-43 0 -81 -20.5t-61 -73.5q-10 -29 -15 -103.5t-7 -175.5v-118z" />
<glyph unicode="&#x44f;" horiz-adv-x="747" d="M47 0l82 317q12 53 36.5 98.5t70.5 65.5q-86 29 -123 89.5t-37 144.5q0 133 74.5 213t242.5 80h266v-1008h-127v444h-124q-63 0 -103.5 -31.5t-62.5 -127.5l-68 -285h-127zM205 709q0 -78 50 -117t146 -39h131v342h-122q-115 0 -160 -52t-45 -134z" />
<glyph unicode="&#x2000;" horiz-adv-x="849" />
<glyph unicode="&#x2001;" horiz-adv-x="1701" />
<glyph unicode="&#x2002;" horiz-adv-x="849" />
<glyph unicode="&#x2003;" horiz-adv-x="1701" />
<glyph unicode="&#x2004;" horiz-adv-x="567" />
<glyph unicode="&#x2005;" horiz-adv-x="423" />
<glyph unicode="&#x2006;" horiz-adv-x="282" />
<glyph unicode="&#x2007;" horiz-adv-x="282" />
<glyph unicode="&#x2008;" horiz-adv-x="210" />
<glyph unicode="&#x2009;" horiz-adv-x="339" />
<glyph unicode="&#x200a;" horiz-adv-x="94" />
<glyph unicode="&#x2010;" horiz-adv-x="684" d="M100 530v113h506v-113h-506z" />
<glyph unicode="&#x2011;" horiz-adv-x="684" d="M100 530v113h506v-113h-506z" />
<glyph unicode="&#x2012;" horiz-adv-x="684" d="M100 530v113h506v-113h-506z" />
<glyph unicode="&#x2013;" horiz-adv-x="1024" d="M41 481v121h942v-121h-942z" />
<glyph unicode="&#x2014;" horiz-adv-x="2048" d="M41 481v121h1966v-121h-1966z" />
<glyph unicode="&#x2018;" horiz-adv-x="397" d="M119 1069v154l80 213h73l-23 -106l-22 -103h35v-158h-143z" />
<glyph unicode="&#x2019;" horiz-adv-x="397" d="M119 1071l21 104l24 105h-35v156h143v-154l-82 -211h-71z" />
<glyph unicode="&#x201a;" horiz-adv-x="335" d="M88 -219l43 209h-35v155h144v-153l-80 -211h-72z" />
<glyph unicode="&#x201c;" horiz-adv-x="536" d="M86 1069v154l80 213h74q-4 -12 -11 -42l-13 -63l-13 -62q-6 -30 -8 -42h34v-158h-143zM299 1069v154l80 213h74q-4 -12 -11 -42l-13 -63l-13 -62q-6 -30 -8 -42h34v-158h-143z" />
<glyph unicode="&#x201d;" horiz-adv-x="536" d="M100 1071l22 104l23 105h-34v156h143v-154l-82 -211h-72zM301 1071l43 209h-35v156h144v-154l-80 -211h-72z" />
<glyph unicode="&#x201e;" horiz-adv-x="536" d="M88 -221l22 103l23 106h-35v155h144v-153l-82 -211h-72zM289 -221l43 209h-35v155h143v-153l-80 -211h-71z" />
<glyph unicode="&#x2022;" horiz-adv-x="780" d="M166 547q0 47 18.5 89t49 72.5t72.5 49t89 18.5t89 -18.5t73 -49t49.5 -72.5t18.5 -89t-18.5 -89t-49.5 -73t-73 -49.5t-89 -18.5t-89 18.5t-72.5 49.5t-49 73t-18.5 89z" />
<glyph unicode="&#x2026;" horiz-adv-x="1179" d="M96 0v150h144v-150h-144zM512 0v150h141v-150h-141zM934 0v150h143v-150h-143z" />
<glyph unicode="&#x202f;" horiz-adv-x="339" />
<glyph unicode="&#x2039;" horiz-adv-x="509" d="M86 475l219 381h125l-215 -381l215 -381h-125z" />
<glyph unicode="&#x203a;" horiz-adv-x="509" d="M86 94l215 381l-215 381h123l219 -381l-219 -381h-123z" />
<glyph unicode="&#x205f;" horiz-adv-x="423" />
<glyph unicode="&#x20ac;" d="M31 573v80h69v140h-69v79h69v203q0 76 16.5 142.5t53.5 115.5t96.5 77t143.5 28q137 0 218 -71t85 -200l-125 -20q-6 90 -53.5 132t-126.5 42q-49 0 -83 -19.5t-56.5 -51t-33 -74.5t-10.5 -89v-215h322v-79h-322v-140h322v-80h-322v-260q0 -41 10.5 -79.5t33 -67.5 t57 -46.5t82.5 -17.5q78 0 124 42t56 135l129 -19q-12 -135 -94 -204.5t-213 -69.5q-145 0 -227.5 82t-82.5 241v264h-69z" />
<glyph unicode="&#x2122;" horiz-adv-x="1306" d="M66 1329v96h444v-96h-172v-700h-100v700h-172zM586 627v796h98l213 -520l207 520h96v-796h-100v522h-6l-160 -385h-82l-162 393h-6v-530h-98z" />
<glyph unicode="&#xe000;" horiz-adv-x="1010" d="M0 1010h1010v-1010h-1010v1010z" />
</font>
</defs></svg> 